(kicad_symbol_lib (version 20201005) (generator kicad_symbol_editor)
  (symbol "lumiled:L128" (pin_numbers hide) (pin_names (offset 1.016) hide) (in_bom yes) (on_board yes)
    (property "Reference" "D" (id 0) (at 0 2.54 0)
      (effects (font (size 1.27 1.27)))
    )
    (property "Value" "L128" (id 1) (at 0 -2.54 0)
      (effects (font (size 1.27 1.27)))
    )
    (property "Footprint" "LED_SMD:LED_PLCC_2835" (id 2) (at 0 0 0)
      (effects (font (size 1.27 1.27)) hide)
    )
    (property "Datasheet" "https://www.lumileds.com/products/color-leds/luxeon-2835-color-line/#" (id 3) (at 0 0 0)
      (effects (font (size 1.27 1.27)) hide)
    )
    (property "ki_keywords" "LED diode" (id 4) (at 0 0 0)
      (effects (font (size 1.27 1.27)) hide)
    )
    (property "ki_description" "Light emitting diode" (id 5) (at 0 0 0)
      (effects (font (size 1.27 1.27)) hide)
    )
    (property "ki_fp_filters" "LED* LED_SMD:* LED_THT:*" (id 6) (at 0 0 0)
      (effects (font (size 1.27 1.27)) hide)
    )
    (symbol "L128_0_1"
      (polyline
        (pts
          (xy -1.27 -1.27)
          (xy -1.27 1.27)
        )
        (stroke (width 0.254)) (fill (type none))
      )
      (polyline
        (pts
          (xy -1.27 0)
          (xy 1.27 0)
        )
        (stroke (width 0)) (fill (type none))
      )
      (polyline
        (pts
          (xy 1.27 -1.27)
          (xy 1.27 1.27)
          (xy -1.27 0)
          (xy 1.27 -1.27)
        )
        (stroke (width 0.254)) (fill (type none))
      )
      (polyline
        (pts
          (xy -3.048 -0.762)
          (xy -4.572 -2.286)
          (xy -3.81 -2.286)
          (xy -4.572 -2.286)
          (xy -4.572 -1.524)
        )
        (stroke (width 0)) (fill (type none))
      )
      (polyline
        (pts
          (xy -1.778 -0.762)
          (xy -3.302 -2.286)
          (xy -2.54 -2.286)
          (xy -3.302 -2.286)
          (xy -3.302 -1.524)
        )
        (stroke (width 0)) (fill (type none))
      )
    )
    (symbol "L128_1_1"
      (pin passive line (at -3.81 0 0) (length 2.54)
        (name "K" (effects (font (size 1.27 1.27))))
        (number "2" (effects (font (size 1.27 1.27))))
      )
      (pin passive line (at 3.81 0 180) (length 2.54)
        (name "A" (effects (font (size 1.27 1.27))))
        (number "1" (effects (font (size 1.27 1.27))))
      )
    )
  )
)
